{
  "project_info": {
    "project_number": "391502823494",
    "firebase_url": "https://stockingapp-db82e.firebaseio.com",
    "project_id": "stockingapp-db82e",
    "storage_bucket": "stockingapp-db82e.appspot.com"
  },
  "client": [
    {
      "client_info": {
        "mobilesdk_app_id": "1:391502823494:android:70499c63772957ae",
        "android_client_info": {
          "package_name": "com.atecresa.www.myware"
        }
      },
      "oauth_client": [
        {
          "client_id": "391502823494-csm3d8kfrmr69u1vrgh6k2mpdjjj1984.apps.googleusercontent.com",
          "client_type": 3
        }
      ],
      "api_key": [
        {
          "current_key": "AIzaSyD7a_0-tMDlO33uONH9tLjEQ6eKuhcWAHg"
        }
      ],
      "services": {
        "analytics_service": {
          "status": 1
        },
        "appinvite_service": {
          "status": 1,
          "other_platform_oauth_client": []
        },
        "ads_service": {
          "status": 2
        }
      }
    }
  ],
  "configuration_version": "1"
}